{
    "fluentMethods": true,
    "relationships": [
        {
            "relationshipType": "one-to-many",
            "relationshipName": "user",
            "otherEntityName": "user",
            "otherEntityRelationshipName": "parner"
        }
    ],
    "fields": [
        {
            "fieldName": "createdBy",
            "fieldType": "String"
        },
        {
            "fieldName": "createdDate",
            "fieldType": "String"
        },
        {
            "fieldName": "deleted",
            "fieldType": "Boolean"
        },
        {
            "fieldName": "status",
            "fieldType": "Boolean"
        },
        {
            "fieldName": "updatedBy",
            "fieldType": "String"
        },
        {
            "fieldName": "updatedDate",
            "fieldType": "String"
        },
        {
            "fieldName": "code",
            "fieldType": "String"
        },
        {
            "fieldName": "name",
            "fieldType": "String"
        }
    ],
    "changelogDate": "20170624103136",
    "entityTableName": "partner",
    "dto": "no",
    "pagination": "no",
    "service": "no"
}