{
    "fluentMethods": true,
    "relationships": [
        {
            "relationshipName": "group",
            "otherEntityName": "group",
            "relationshipType": "many-to-one",
            "otherEntityField": "id"
        },
        {
            "relationshipName": "target",
            "otherEntityName": "target",
            "relationshipType": "many-to-one",
            "otherEntityField": "id"
        },
        {
            "relationshipName": "distributionMonth",
            "otherEntityName": "distributionMonth",
            "relationshipType": "many-to-one",
            "otherEntityField": "id"
        }
    ],
    "fields": [
        {
            "fieldName": "name",
            "fieldType": "String"
        },
        {
            "fieldName": "department",
            "fieldType": "String"
        },
        {
            "fieldName": "metric",
            "fieldType": "Integer"
        },
        {
            "fieldName": "cost",
            "fieldType": "Integer"
        },
        {
            "fieldName": "costType",
            "fieldType": "String"
        },
        {
            "fieldName": "lastUpdate",
            "fieldType": "Long"
        },
        {
            "fieldName": "status",
            "fieldType": "Boolean"
        }
    ],
    "changelogDate": "20170624103137",
    "entityTableName": "target_metric",
    "dto": "no",
    "pagination": "no",
    "service": "no"
}